001-9
001-9

00190.00009 03005.182005 00766.808174 4 88630000011538

Loc al de pagamento
Pagável em qualquer banc o.
Pagável em qualquer banc o.

Nome do Benefic iário/CPF/CNPJ/Endereç o
OSIRNET INFO TELECOM LTDA.
OSIRNET INFO TELECOM LTDA.

CPF / CNPJ
10773501000164
10773501000164

Agênc ia / Código do Benefic iário

Endereç o do c edente
Pelotas - RS - 96080-780
Avenida Presidente Jusc elino Kubitsc hek de Oliveira, 5088 - Pelotas - RS - 96080-780
Avenida Presidente Jusc elino Kubitsc hek de Oliveira, 5088 - 

Data do doc umento
03/01/2022
03/01/2022

N° doc umento
1/FAT220112420424968
1/FAT220112420424968

Espéc ie doc .
DMDM

Ac eite
NN

Data Proc essamento
04/01/2022
04/01/2022

(=) Valor do Doc umento

115,38
115,38

Uso do banc o

Carteira
1717

Espéc ie
R$R$

Quantidade

x Valor.

(-) Desc onto / Abatimento

Instruç ões (Texto de responsabilidade do benefic iário)
Multa de 2% por atraso, juros 0,05% de mora ao dia.
Multa de 2% por atraso, juros 0,05% de mora ao dia.
O pagamento deste boleto não quita débitos anteriores. Evite suspensão do serviç o.
O pagamento deste boleto não quita débitos anteriores. Evite suspensão do serviç o.
O banc o tem 24hs para registrar o boleto. Aguarde o prazo para fazer o pagamento. Para 2ª via do boleto ac esse:
O banc o tem 24hs para registrar o boleto. Aguarde o prazo para fazer o pagamento. Para 2ª via do boleto ac esse:
portal.osirnet.c om.br/fac ilita c om o CPF do titular nos 2 c ampos.
portal.osirnet.c om.br/fac ilita c om o CPF do titular nos 2 c ampos.

Venc imento

12/01/2022
12/01/2022

Agênc ia / Código do Benefic iário

0029-9 / 00034593-8
0029-9 / 00034593-8

Nosso número

30051820000766808
30051820000766808

(-) Outras deduç ões / Abatimentos

(+) Mora / Multa / Juros

(+) Outros Ac résc imos

(=) Valor c obrado

  

  

  

  

RECIBO DO PAGADOR

 

Nome do Benefic iário/CPF/CNPJ/Endereç o
OSIRNET INFO TELECOM LTDA.
10773501000164

Número do doc umento

1/FAT220112420424968

Venc imento

12/01/2022

0029-9 / 00034593-8

30051820000766808

115,38

Nosso número

(=) Valor do Doc umento

(-) Desc onto / Abatimento

(-) Outras deduç ões / Abatimentos

(+) Mora / Multa / Juros

(+) Outros Ac résc imos

Nome do Pagador/CPF/CNPJ
PITER ORTIZ GONÇALVES
022.296.540-12

 

 

 

 

 

(=) Valor c obrado

Nome do Pagador/CPF/CNPJ

PITER  OR TIZ GON Ç AL VES - C N PJ/C PF: 0 2 2 .2 9 6 .5 4 0 -1 2
PITER  OR TIZ GON Ç AL VES - C N PJ/C PF: 0 2 2 .2 9 6 .5 4 0 -1 2
Avenida Pinheiro Mac hado, 1501 BL C AP 00401 - Fragata
Avenida Pinheiro Mac hado, 1501 BL C AP 00401 - Fragata
Pelotas - RS - 96040-500
Pelotas - RS - 96040-500

Sac ador/Avalista:

Autentic aç ão Mec ânic a / FICHA DE COMPENSAÇÃO
Autentic aç ão Mec ânic a / FICHA DE COMPENSAÇÃO

